1 || 65 ||  || Jenkins
2 || 66 ||  || Jenkins
3 || 68 ||  || Jenkins
4 ||  || a23948ed || Eduard Paraschivescu
5 ||  || a23948ed || Matthieu Bourque
6 ||  || a23948ed || Eduard Paraschivescu
7 ||  || a23948ed || Matthieu Bourque
8 || 70 ||  || Jenkins
9 || 71 ||  || Jenkins
10 || 72 ||  || Jenkins
11 ||  || a23948ed || Eduard Paraschivescu
12 ||  || a23948ed || Matthieu Bourque
13 ||  || a23948ed || Eduard Paraschivescu
14 ||  || a23948ed || Matthieu Bourque